[gd_scene load_steps=5 format=3 uid="uid://dlhxdqgor4rf4"]

[ext_resource type="Script" path="res://bullet.gd" id="1_sm8ti"]

[sub_resource type="BoxMesh" id="BoxMesh_3qq0g"]
size = Vector3(0.1, 0.1, 0.1)

[sub_resource type="StandardMaterial3D" id="StandardMaterial3D_ex7kb"]
albedo_color = Color(1, 0.462745, 1, 1)

[sub_resource type="BoxShape3D" id="BoxShape3D_c21j0"]
size = Vector3(0.1, 0.1, 0.1)

[node name="Bullet" type="CharacterBody3D" groups=["player_bullet"]]
axis_lock_angular_x = true
axis_lock_angular_y = true
axis_lock_angular_z = true
script = ExtResource("1_sm8ti")

[node name="MeshInstance3D" type="MeshInstance3D" parent="."]
mesh = SubResource("BoxMesh_3qq0g")
surface_material_override/0 = SubResource("StandardMaterial3D_ex7kb")

[node name="CollisionShape3D" type="CollisionShape3D" parent="."]
shape = SubResource("BoxShape3D_c21j0")
